13
15
20
0	0.0953037	0.0794376
1	0.0993586	0.0813215
2	0.100748	0.0819593
3	0.0993586	0.0813215
4	0.0953037	0.0794376
5	0.08891	0.0763944
6	0.0806729	0.0723288
7	0.0711936	0.0674179
8	0.0611069	0.0618661
9	0.0510124	0.0558914
10	0.0414188	0.0497108
11	0.0327082	0.0435282
12	0.0251218	0.0375237
13	0.0187664	0.0318459
14	0.0136348	0.0266083
15	0.009635	0.0218874
16	0.00662203	0.0177249
17	0.00442657	0.0141315
18	0.00287792	0.011092
19	0.00181982	0.00857122

10
281
546
759
900
1080
1360
1500
1728
1841
2036
