00000000000000000000000000000000000000000000000000000000000000000000000000000000000000000000000000000000000000000000000000000000000000000000000000000000000000000000000000000000000000000000000000000000
00000000000000000000000000000000000000000000000000000000000000000000000000000000000000000000000000000000000000000000000000000000000000000000000000000000000000000000000000000000000000000000000000000000
00000000000000000000000000000000000000000000000000000000000000000000000000000000000000000000000000000000000000000000000000000000000000000000000000000000000000000000000000000000000000000000000000000000
00000000000000000000000000000000000000000000000000000000000000000000000000000000000000000000000000000000000000000000000000000000000000000000000000000000000000000000000000000000000000000000000000000000
00000000000000000000000000000000000000001000000000000000000000000000000000000000000000000000000000000000000000000000000000000000000000000000000000000000000000000000000000000000000000000000000000000000
00000000000000000000000000000000000000001000000000000000000000000000000000000000000000000000000000000000000000000000000000000000000000000000000000000000000000000000000000000000000000000000000000000000
00000000000000000000000000000000000000000100000000000000000000000000000000000000000000000000000000000000000000000000000000000000000000000000000000000000000000000000000000000000000000000000000000000000
00000000000000000000000000000000000000000100000000000000000000000000000000000000000000000000000000000000000000000000000000000000000000000000000000000000000000000000000000000000000000000000000000000000
00000000000000000000000000000000000000000110000000000000000000000000000000000000000000000000000000000000000000000000000000000000000000000000000000000000000000000000000000000000000000000000000000000000
00000000000000000000000000000000000000000110000000000000000000000000000000000000000000000000000000000000000000000000000000000000000000000000000000000000000000000000000000000000000000000000000000000000
00000000000000000000000000000000000000000011000000000000000000000000000000000000000000000000000000000000000000000000000000000000000000000100000000000000000000000000000000000000000000000000000000000000
00000000000000000000000000000000000000000011100000000000000000000000000000000000000000000000000000000000000000000000000000000000000000000100000000000000000100000000000000000000000000000000000000000000
00000000000000000000000000000000000000000011100000000000000000000000000000000000000000000000000000000000000000000000000000000000000000000010000000000000111111100000000000000000000000000000000000000000
00000000000000000000000000000000000000000011110000000000000000000000001100000000000000000000000000000000000000000011111110000000000000000010000000000001111111110000000000000000000000000000000100000000
00000000000000000000000000000000000000000001110000000000000000000000111100000000000000000000000000000000000000000001000001111111111110000010000000000011111111111000000000000000000000000000001000000000
00000000000000010000000000000000000000000001111000000000000000000011111100000000000000000000000000000000000000000000100000000000000001111111000000000111111111111100000000000000000000000000110000000000
00000000000011111110000000000000000000000001111000000000000000001111111100000000000000000001000000000000000000000000010000000000000000000000000000000111111111111100000000000000000000000001110000000000
00000000000111111111000000000000000000000000111100000000000000111111111100000000000000000001110000000000000000000000001000000000000000000000000000000111111111111100000000000000000000000111100000000000
00000000001111111111100000000000000000000000011110000000000011111111111100000000000000000000111000000000000000000000000100000000000000000000000000001111111111111110000000000000000000001111000000000000
00000000011111111111110000000000000000000000001110000000001111111111111000000000000000000000111110000000000000000000000010000000000000000000000000000111111111111100000000000000000000111111000000000000
00000000011111111111110000000000000000000000000111000000001111111111111000000000000000000000111111000000000000000000000001000000001000000000000000000111111111111100000000000000000001111110000000000000
00000000011111111111110000000000000000000000000001000000000111111111111000000000000000000000011111110000000000000000000000100000000100000000000000000111111111111100000000000000000111111100000000000000
00000000111111111111111000000000000000000000000000100000000011111111111000000000000000000000011111111000000000000000000000010000000100000000000000000011111111111000000000000000001111111000000000000000
00000000011111111111110000000000000000000000000000000000000001111111111000000000000000000000011111111110000000000000000000001000000100000000000000000001111111110000000000000000111111111000000000000000
00000000011111111111110000000000000000000000000000000000000000111111111000000000000000000000001111111111000000000000000000000100000010000000000000000000111111100000000000000001111111110000000000000000
00000000011111111111110000000000000000000000000000000000000000011111111000000000000000000000001111111111110000000000000000000010000011000000000000000000000100000000000000000011111111100000000000000000
00000000001111111111100000000000000000000000000000000000000000001111110000000000000000000000000111111111111000000000000000000001000001000000000000000000000000000000000000000001111111000000000000000000
00000000000111111111000000000000000000000000000000000000000000000111110000000000000000000000000111111111110000000000000000000000100000100000000000000000000000000000000000000000111111000000000000000000
00000000000011111110000000000000000000000000000000000000000000000011110000000000000000000000000111111111100000000000000000000000010000100000000000000000000000000000000000000000011110000000000000000000
00000000000000010000000000000000000000000000000000000000000000000001110000000000000000000000000011111111000000000000000000000000001000010000000000000000000000000000000000000000001100000000000000000000
00000000000000000000000000000000000000000000000000000000000000000000110000000000000000000000000011111110000000000000000000000000000100010000000000000000000000000000000000000000000000000000000000000000
00000000000000000000000000000000000000000000000000000000000000000000010000000000000000000000000011111000000000000000000000000000000010010000000000000000000000000000000000000000000000000000000000000000
00000000000000000000000000000000000000000000000000000000000000000000000000000000000000000000000001110000000000000000000000000000000001001000000000000000000000000000000000000000000000000000000000000000
00000000000000000000000000000000000000000000000000000000000000000000000000000000000000000000000001100000000000000000000000000000000000101000000000000000000000000000000000000000000000000000000000000000
00000000000000000000000000000000000000000000000000000000000000000000000000000000000000000000000000000000000000000000000000000000000000010100000000000000000000000000000000000000000000000000000000000000
00000000000000000000000000000000000000000000000000000000000000000000000000000000000000000000000000000000000000000000000000000000000000001010000000000000000000000000000000000000000000000000000000000000
00000000000000000000000000000000000000000000000000000000000000000000000000000000000000000000000000000000000000000000000000000000000000000110000000000000000000000000000000000000000000000000000000000000
00000000000000000000000000000000000000000000000000000000000000000000000000000000000000000000000000000000000000000000000000000000000000000011000000000000000000000000000000000000000000000000000000000000
00000000000000000000000000000000000000000000000000000000000000000000000000000000000000000000000000000000000000000000000000000000000000000001000000000000000000000000000000000000000000000000000000000000
00000000000000000000000000000000000000000000000000000000000000000000000000000000000000000000000000000000000000000000000000000000000000000000000000000000000000000000000000000000000000000000000000000000
00000000000000000000000000000000000000000000000000000000000000000000000000000000000000000000000000000000000000000000000000000000000000000000000000000000000000000000000000000000000000000000000000000000
00000000000000000000000000000000000000000000000000000000000000000000000000000000000000000000000000000000000000000000000000000000000000000000000000000000000000000000000000000000000000000000000000000000
00000000000000000000000000000000000000000000000000000000000000000000000000000000000000000000000000000000000000000000000000000000000000000000000000000000000000000000000000000000000000000000000000000000
00000000000000000000000000000000000000000000000000000000000000000000000000010000000000000000000000000000000000000000000000000000000000000000000000000000000000000000000000000000000000000000000000000000
00000000000001100000000000000000000000000000000000000000000000000000000000110000000000000000000000000000000000000000000000011000000000000000000000000000000000000000000000000000000000000000000100000000
00000000000111100000000000000000000000000000000000000000000000000000000000110000000000000000000000000000000000000000000000111000000000000000000000000000000000000000000000000000000000000000001000000000
00000000011111100000000000000000000000000000000000000000000000000000000001111000000000000000000000000000000000000000000001111000000000000000000000000000000000000000000000000000000000000000111000000000
00000001111111100000000000000000000000000000000000000000000000000000000001111000000000000000000000000000000000100000000011111100000000000000000000000000000000000000000000000000000000000001110000000000
00000111111111100000000000000000000000000000000000000000000000000000000011111000000000000000000000000000000111100000000111111100000000000000000000000000000000000000000000000000000000000011110000000000
00001111111111100000000000000000000000000000000000000000000000000000000011111000000000000000000000000000011000100000001111111100000000000000000000000000000000000000000000000000000000000111100000000000
00001111111111100000000000000000000000000000000000000000000000000000000111111100000000000000000000010001100000100000011111111100000000000000000000000000000000000000000000000000000000001111100000000000
00001111111111000000000000000000000000000000000000000000000000000000001111111100000000000000000000011110000000100000111111111110000000000000000000000000000000000000000000000000000000001111000000000000
00000111111111000000000000000000100000000000000000000000000000000000001111111100000000000000000000011100000000100001111111111110000000000000000000000000000000000000000000000000000000011111000000000000
00000111111111000000000000000000100000000000000000000000000000000000011111111100000000000000000011100111000000100001111111111110000000000000000000000000000000000000000000000000000000011110000000000000
00000011111111000000000000000000110000000000000000000000000000000000011111111110000000000000001100000101000000010001111111111110000000000000000000000010000000000000000000000000000000011110000000000000
00000011111111000000000000000000010000000000000000000000000000000000111111111110000000000000110000000010110000010000111111111111000000000000000000000010000000000000000000000000000000111100000000000000
00000001111111000000000000000000011000000000000000000000000000000000111111111110000000000011000000000001001000010000011111111111000000000000000000000010000000000000000000000000000000111100000000000000
00000001111111000000000000000000011000000000000000000000000000000001111111111110000000001100000000000001101100010000001111111111000000000000000000000010001000000000000000000000000000111000000000000000
00000000111111000000000000000000010100000000000000000000000000000011111111111111000000110000000000000000100010010000000111111111000000000000000000000100010000000000000000000000000001111000000000000000
00000000111110000000000000000000010100000000000000000000000000000011111111111111000000000000000000000000010001010000000001111111100000000000000000000100110000000000000000000000000001110000000000000000
00000000011110000000000000000000010110000000000000000000000000000111111111111111000000000000000000000000010000110000000001111111100000000000000000000100100000000000000000000000000001110000000000000000
00000000011110000000000000000000001011100000000000000000000000000111111111111111000000000000000000000000001000010000000000111111100000000000000000000101000000000000000000000000000011100000000000000000
00000000001110000000000000000000001010011000000000000000000000001111111111111111100000000000000000000000001100010000000000011111100000000000000000000100100000000000000000000000000011000000000000000000
00000000001110000000000000000000001001000100000000000000000000001111111111111111100000000000000000000000000100010000000000001111110000000000000000000100010000000000000000000000000011000000000000000000
00000000000110000000000000000000001001000011000000000000000000011111111111111111100000000000000000000000000010010000000000000011110000000000000000001000001000000000000000000000000110000000000000000000
00000000000110000000000000000000001000100000100000000000000000011111111111111111100000000000000000000000000010010000000000000011110000000000000000001000000100000000000000000000000110000000000000000000
00000000000010000000000000000000001000100000100000000000000000111111111100000000000000000000000000000000000001001000000000000001110000000000000000001000001100000000000000000000000100000000000000000000
00000000000000000000000000000000000100100000100000000000000000000000000000000000000000000000000000000000000001001000000000000000111000000000000000001000010000000000000000000000001100000000000000000000
00000000000000000000000000000000000100010000100000000000000000000000000000000000000000000000000000000000000000101000000000000000011000000000000000001000010000000000000000000000001000000000000000000000
00000000000000000000000000000000000100001000100000000000000000000000000000000000000000000000000000000000000000011000000000000000001000000000000000001000100000000000000000000000001000000000000000000000
00000000000000000000000000000000000100001000100000000000000000000000000000000000000000000000000000000000000000011000000000000000000000000000000000010000100000000000000000000000010000000000000000000000
00000000000000000000000000000000000100001001000000000000000000000000000000000000000000000000000000000000000000001000000000000000000000000000000000010001000000000000000000000000010000000000000000000000
00000000000000000000000000000000000100000101000000000000000000000000000000000000000000000000000000000000000000000000000000000000000000000000000000010010000000000000000000000000000000000000000000000000
00000000000000000000000000000000000010000101000000000000000000000000000000000000000000000000000000000000000000000000000000000000000000000000000000010100000000000000000000000000000000000000000000000000
00000000000000000000000000000000000010000011000000000000000000000000000000000000000000000000000000000000000000000000000000000000000000000000000000010100000000000000000000000000000000000000000000000000
00000000000000000000000000000000000010000011000000000000000000000000000000000000000000000000000000000000000000000000000000000000000000000000000000011000000000000000000000000000000000000000000000000000
00000000000000000000000000000000000010000011000000000000000000000000000000000000000000000000000000000000000000000000000000000000000000000000000000111000000000000000000000000000000000000000000000000000
00000000000000000000000000000000000000000001000000000000000000000000000000000000000000000000000000000000000000000000000000000000000000000000000000110000000000000000000000000000000000000000000000000000
00000000000000000000000000000000000000000000000000000000000000000000000000000000000000000000000000000000000000000000000000000000000000000000000000100000000000000000000000000000000000000000000000000000
00000000000000000000000000000000000000000000000000000000000000000000000000000000000000000000000000000000000000000000000000000000000000000000000000000000000000000000000000000000000000000000000000000000
00000000000000000000000000000000000000000000000000000000000000000000000000000000000000000000000000000000000000000000000000000000000000000000000000000000000000000000000000000000000000000000000000000000
00000000000000000000000000000000000000100000000000000000000000000000000000000000000000000000000000000000000000000000000000000000000000000000000000000000000000000000000000000000000000000000000000000000
00000000000000000000000000000000000000100000000000000000000000000000000000000000000000000000000000000100000000000000000000000000000000000000000000000000000000000000000000000000000000000000000000000000
00000000000000000000000000000000000000110000000000000000000000000000000000000000000000000000000000011100000000000000000000000000000000000000000000000000000000000000000000000000000000000000000000000000
00000000000000000000000000000000000000110000000000000000000000000000000000000000000000000000000001111100000000000000000000000000000000000000000000000000000000100000000000000000000000000000000000000000
00000000000000000000000000000000000000110000000000000000000000000000000000000000000000000000000011111100000000000000000000000000000000000000000000000000000000100000000000000000000000000000000000000000
00000000000000000000000000000000000000101000000000000000000000000000000000000000000000000000001111111000000000000000000000000000000000000000000000000000000000100000000000000000000000000000000000000000
00000000000000000000000000000000000000101000000000000000000000000000000000000000000000000000111111111000000000000000000000000000000000000000000000000000000001110000000000000000000000000000000000000000
00000000000000000000000000000000000000101000000000000000000000000000000000000000000000000001111111111000000000000000000000000000000000000000000000000000000001110000000000000000000000000000000000000000
00000000000000000000000000000000000000100100000000000000000000000000000000000000000000000001111111111000000000000000000000000001000000000000000000000000000001110000000000000000000000000000000000000000
00000000000000000000000000000000000000100100000000000000000000000000000000000000000000000001111111110000000000000000000000001111111000000000000000000000000011110000000000000000000000000000000000000000
00000000000000000000000000000000000000100010000000000000000000000000000100000000000000000001111111110000000000000000000000011111111100000000000000000000000011111000000000000000000000000000000000000000
00000100000000000000000000000000000000100010000000000000000000000000111111100000000000000000111111110000000000000000000000111111111110000000000000000000000011111000000000000000000000000000000000000000
00000111000000000000000000000000000000100001000000000000000000000001111111110000000000000000111111110000000000000000000001111111111111000000000000000000000011111000000000000000000000010000000000000000
00000111110000000000000000000000000000100001000000000000000000000011111111111000000000000000111111110000000000000000000001111111111111000000000000000000000111111000000000000000000011111110000000000000
00000011111000000000000000000000000000100001000000000000000000000111111111111100000000000000011111100000000000000000000001111111111111000000000000000000000111111100000000000000000111111111000000000000
00000011111110000000000000000000000000100000100000000000000000000111111111111100000000000000011111100000000000000000000011111111111111100000000000000000000111111100000000000000001111111111100000000000
00000011111111100000000000000000000000100000100000000000000000000111111111111100000000000000011111100000000000000000000001111111111111000000000000000000000111111100000000000000011111111111110000000000
00000001111111111000000000000000000000010000100000000000000000001111111111111110000000000000001111100000000000000000000001111111111111000000000000000000001111111100000000000000011111111111110000000000
00000001111111111100000000000000000000010000010000000000000000000111111111111100000000000000001111000000000000000000000001111111111111000000000000000000001111111100000000000000011111111111110000000000
00000001111111111111000000000000000000010000010000000000000000000111111111111100000000000000001111000000000000000000000000111111111110000000000000000000001111111000000000000000111111111111111000000000
00000000111111111111110000000000000000010000010000000000000000000111111111111100000000000000000111000000000000000000000000011111111100000000000000000000011111110000000000000000011111111111110000000000
00000000111111111111111100000000000000010000001000000000000000000011111111111000000000000000000111000000000000000000000000001111111000000000000000000000011111100000000000000000011111111111110000000000
00000000111111111111111110000000000000010000001000000000000000000001111111110000000000000000000110000000000000000000000000000001000000000000000000000000011111000000000000000000011111111111110000000000
00000000011111111111110000000000000000010000001100000000000000000000111111100000000000000000000010000000000000000000000000000000000000000000000000000000011100000000000000000000001111111111100000000000
00000000011111111100000000000000000000010000000100000000000000000000000100000000000000000000000010000000000000000000000000000000000000000000000000000000111000000000000000000000000111111111000000000000
00000000011111000000000000000000000000010000000100000000000000000000000000000000000000000000000010000000000000000000000000000000000000000000000000000000110000000000000000000000000011111110000000000000
00000000000000000000000000000000000000010000000010000000000000000000000000000000000000000000000000000000000000000000000000000000000000000000000000000000100000000000000000000000000000010000000000000000
00000000000000000000000000000000000000010000000010000000000000000000000000000000000000000000000000000000000000000000000000000000000000000000000000000000000000000000000000000000000000000000000000000000
00000000000000000000000000000000000000010000000100000000000000000000000000000000000000000000000000000000000000000000000000000000000000000000000000000000000000000000000000000000000000000000000000000000
00000000000000000000000000000000000000010000001000000000000000000000000000000000000000000000000000000000000000000000000000000000000000000000000000000000000000000000000000000000000000000000000000000000
00000000000000000000000000000000000000010000010000000000000000000000000000000000000000000000000000000000000000000000000000000000000000000000000000000000000000000000000000000000000000000000000000000000
00000000000000000000000000000000000000010000000011100000000000000000000000000000000000000000000000000000000000000000000000000000000000000000000000000000000000000000000000000000000000000000000000000000
00000000000000000000000000000000000000010011111100000000000000000000000000000000000000000000000000000000000000000000000000000000000000000000000000000000000000000000000000000000000000000000000000000000
00000000000000000000000000000000000000011100000000000000000000000000000000000000000000000000000000000000000000000000000000000000000000000000000000000000000000000000000000000000000000000000000000000000
00000000000000000000000000000000000000000000000000000000000000000000000000000000000000000000000000000000000000000000000000000000000000000000000000000000000000000000000000000000000000000000000000000000
00000000000000000000000000000000000000000000000000000000000000000000000000000000000000000000000000000000000000000000000000000000000000000000000000000000000000000000000000000000000000000000000000000000
00000000000000000000000000000000000000000000000000000000000000000000000000000000000000000000000000000000000000000000000000000000000000000000000000000000000000000000000000000000000000000000000000000000
00000000000000000000000000000000000000000000000000000000000000000000000000000000000000000000000000000000000000000000000000000000000000000000000000000000000000000000000000000000000000000000000000000000
00000000000000000000000000000000000000000000000000000000000000000000000000000000000000000000000000000000000000000000000000000000000000000000000000000000000000000000000000000000000000000000000000000000
00000000000000000000000000000000000000000000000000000000000000000000000000000000000000000000000000000000000000000000000000000000000000000000000000000000000000000000000000000000000000000000000000000000
00000000000000000000000000000000000000000000000000000000000000000000000000000000000000000000000000000000000000000000000000000000000000000000000000000000000000000000000000000000000000000000000000000000
00000000000000000000000000000000000000000000000000000000000000000000000000000000000000000000000000000000000000000000000000000000000000000000000000000000000000000000000000000000000000000000000000000000
00000000011111111111111100000000000000000000000000000000000000000000000000000000000000000000000000000000000000000000000000000000000000000000000000000000000000000000000000000000000000000000000000000000
00000000011111111111111100000000000000000000000000000000000000000000000000000000000000000000000000000000000000000000000000000000000000000000000000000000000000000000000000000000000000000000000000000000
00000000011111111111111100000000000000000000000000000000000000000000000000000000000000000000000000000000000000000000000000000000000000000000000000000000000000000000000000000000000000000000000000000000
00000000011111111111111100000000000000000000000000000000000000000000000000000000000000000000000000000000000000000000000000000000000000000000000000000000000000000000000000000000000000000000000000000000
00000000011111111111111100000000000000000000000000000000000000000000000000000000000000000000000000000000000000000000000000000000000000000000000000000000000000000000000000000000000000000000000000000000
00000000011111111111111100000000000111111111111111110000000000000000000000000000000000000000000000000000000000000000000000000000000000000000000000000000000000000000000000000000000000000000000000000000
00000000011111111111111100000000000111111111111111110000000000000000000000000000000000000000000000000000000000000000000000000000000000000000000000000000000000000000000000000000000000000000000000000000
00000000011111111111111100000000000111111111111111110000000000000000000000000000000000000000000000000000000000000000000000000001000000000000000000000000000000000000000000000000000000000000000000000000
00000000011111111111111100000000000111111111111111110000000000000000000000000000000000000000000000000000000000000000000000001111111000000000000000000000000100000000000000000000000000010000000000000000
00000000011111111111111100000000000111111111111111110000000000000000000000000000000000000000000000010000000000000000000000011111111100000000000000000000111111100000000000000000000011111110000000000000
00000000011111111111111100000000000111111111111111110000000000000000000000000000000000000000000011111110000000000000000000111111111110000000000000000001111111110000000000000000000111111111000000000000
00000000011111111111111100000000000111111111111111110000000000000000000000000000000000000000000111111111000000000000000001111111111111000000000000000011111111111000000000000000001111111111100000000000
00000000011111111111111100000000000111111111111111110000000000000000000000000000000000000000001111111111100000000000000001111111111111000000000000000111111111111100000000000000011111111111110000000000
00000000011111111111111100000000000111111111111111110000000100000000000000000000000000000000011111111111110000000000000001111111111111000000000000000111111111111100000000000000011111111111110000000000
00000000011111111111111100000000000111111111111111110000000110000000000000000000000000000000011111111111110000000000000011111111111111100000000000000111111111111100000000000000011111111111110000000000
00000000011111111111111100000000000111111111111111110000000010000000000000000000000000000000011111111111110000000000000001111111111111000000000000001111111111111110000000000000111111111111111000000000
00000000011111111111111100000000000111111111111111110000000011100000000000000000000000000000111111111111111000000000000001111111111111000000000000000111111111111100000000000000011111111111110000000000
00000000011111111111111100000000000111111111111111110000000001100000000000000000000000000000011111111111110000000000000001111111111111000000000000000111111111111100000000000000011111111111110000000000
00000000011111111111111100000000000111111111111111110000000000110000000000000000000000000000011111111111110000000000000000111111111110000000000000000111111111111100000000000000011111111111110000000000
00000000011111111111111100000000000111111111111111110000000000101000000000000000000000000000011111111111110000000000000000011111111100000000000000000011111111111000000000000000001111111111100000000000
00000000000000000000000000000000000111111111111111110000000000011100000000000000000000000000001111111111100000000000000000001111111000000000000000000001111111110000000000000000000111111111000000000000
00000000000000000000000000000000000111111111111111110000000000000111000000000000000000000000000111111111000000000000000000000001000000000000000000000000111111100000000000000000000011111110000000000000
00000000000000000000000000000000000111111111111111110000000000000010100000000000000000000000000011111110000000000000000000000000000000000000000000000000000100000000000000000000000000010000000000000000
00000000000000000000000000000000000111111111111111110000000000000001010000000000000000000000000000010000000000000000000000000000000000000000000000000000000000000000000000000000000000000000000000000000
00000000000000000000000000000000000000000000000000000000000000000000101000000000000000000000000000000000000000000000000000000000000000000000000000000000000000000000000000000000000000000000000000000000
00000000000000000000000000000000000000000000000000000000000000000000010110000000000000000000000000000000000000000000000000000000000000000000000000000000000000000000000000000000000000000000000000000000
00000000000000000000000000000000000000000000000000000000000000000000011010000000000000000000000000000000000000000000000000000000000000000000000000000000000000000000000000000000000000000000000000000000
00000000000000000000000000000000000000000000000000000000000000000000001001100000000000000000000000000000000000000000000000000000000000000000000000000000000000000000000000000000000000000000000000000000
00000000000000000000000000000000000000000000000000000000000000000000000100010000000000000000000000000000000000000000000000000000000000000000000000000000000000000000000000000000000000000000000000000000
00000000000000000000000000000000000000000000000000000000000000000000000000011000000000000000000000000000000000000000000000000000000000000000000000000000000000000000000000000000000000000000000000000000
00000000000000000000000000000000000000000000000000000000000000000000000000000100000000000000000000000000000000000000000000000000000000000000000000000000000000000000000000000000000000000000000000000000
00000000000000000000000000000000000000000000000000000000000000000000000000000010000000000000000000000000000000000000000000000000000000000000000000000000000000000000000000000000000000000000000000000000
00000000000000000000000000000000000000000000000000000000000000000000000000000000000000000000000000000000000000000000000000000000000000000000000000000000000000000000000000000000000000000000000000000000
00000000000000000000000000000000000000000000000000000000000000000000000000000000000000000000000000000000000000000000000000000000000000000000000000000000000000000000000000000000000000000000000000000000
00000000000000000000000000000000000000000000000000000000000000000000000000000000000000000000000000000000000000000000000000000000000000000000000000000000000000000000000000000000000000000000000000000000
00000000000000000000000000000000000000000000000000000000000000000000000000000000000000000000000000000000000000000000000000000000000000000000000000000000000000000000000000000000000000000000000000000000
00000000000000000000000000000000000000000000000000000000000000000000000000000000000000011111111111111111111000000000000000000000000000000000000000000000000000000000000000000000000000000000000000000000
00000000000100000000000000000000000000000000000000000000000000000000000000000000000000011111111111111111111000000000000000000000000000000000000001111111111111111111100000000001000000000000000000000000
00000000001110000000000000000000000000000000000000000000000000000000000000000000000000011111111111111111111000000000000000000000000000010000000001111111111111111111100000000000100000000000000000000000
00000000001111000000000000000000000000000000000000000000000000000000000000000000000000011111111111111111111000000000000000000000000000010000000001111111111111111111100000000000110000000000000000000000
00000000011111100000000000000000000000000000000000000000000000000000000000000000000000011111111111111111111000000000000000000000000000010000000001111111111111111111100000000000010000000000000000000000
00000000011111100000000000000000000000000000000000000000000000000000000000000000000000011111111111111111111000000000000000000000000000001000000001111111111111111111100000000000001000000000000000000000
00000000111111110000000000000000000000000000000000000000000000000000000000000000000000011111111111111111111000000000000000000010000000001000000001111111111111111111100000000000000100000000000000000000
00000000111111111000000000000000000000000000000000000000000000000000000000000000000000011111111111111111111000000000000000000011000000001000000001111111111111111111100000000000000110000000000000000000
00000001111111111100000000000000000000000000000000000000000000000000000000000000000000011111111111111111111000000000000000000101000000001000000001111111111111111111100000000000000010000000000000000000
00000011111111111100000000000000000000000000000000000000000000000000000000000000000000011111111111111111111000000000000000000100100000001000000001111111111111111111100000000000000001000000000000000000
00000011111111110000000000000000011111111111111111111110000000000000000100000000000000011111111111111111111000000000000000001000010000001000000001111111111111111111100000000000000000100000000000000000
00000111111111000000000000000000011111111111111111111110000000000000111111100000000000011111111111111111111000000000000000010000001000000100000001111111111111111111100000000000000000110000000000000000
00000111111100000000000000000000011111111111111111111110000000000001111111110000000000011111111111111111111000000000000000010000001000000100000001111111111111111111100000000000000000010000000000000000
00001111100000000000000000000000011111111111111111111110000000000011111111111000000000011111111111111111111000000000000000100000000100000100000001111111111111111111100000000000000000001000000000000000
00001110000000000000000000000000011111111111111111111110000000000111111111111100000000011111111111111111111000000000000000100000000010000100000001111111111111111111100000000000000000000100000001000000
00011000000000000000000000000000011111111111111111111110000000000111111111111100000000011111111111111111111000000000000001000000000001000100000001111111111111111111100000000000000000000110000010000000
00000000000000000000000000000000011111111111111111111110000000000111111111111100000000011111111111111111111000000000000001000000000001000010000001111111111111111111100000000000000000000010000100000000
00000000000000000000000000000000011111111111111111111110000000001111111111111110000000011111111111111111111000000000000010000000000000100010000001111111111111111111100000000000000000000001011000000000
00000000000000000000000000000000011111111111111111111110000000000111111111111100000000011111111111111111111000000000000100000000000000110010000001111111111111111111100000000000000000000000110000000000
00000000000000000000000000000000011111111111111111111110000000000111111111111100000000011111111111111111111000000000000100000000000001010010000001111111111111111111100000000000000000000000110000000000
00000000000000000000000000000000011111111111111111111110000000000111111111111100000000011111111111111111111000000000001000000000000110001010000001111111111111111111100000000000000000000011010000000000
00000000000000000000000000000000011111111111111111111110000000000011111111111000000000011111111111111111111000000000001000000000011000000110000001111111111111111111100000000000000000000010001000000000
00000000000000000000000000000000011111111111111111111110000000000001111111110000000000011111111111111111111000000000010000000001100000000111000001111111111111111111100000000000000000001100000100000000
00000000000000000000000000000000011111111111111111111110000000000000111111100000000000011111111111111111111000000000010000001110000000000011000001111111111111111111100000000000000000001000000110000000
00000000000000000000000000000000011111111111111111111110000000000000000100000000000000011111111111111111111000000000100000110000000000000001000001111111111111111111100000000000000000110000000010000000
00000000000000000000000000000000011111111111111111111110000000000000000000000000000000011111111111111111111000000001000011000000000000000000000000000000000000000000000000000000000001100000000001000000
00000000000000000000000000000000011111111111111111111110000000000000000000000000000000011111111111111111111000000001001100000000000000000000000000000000000000000000000000000000000011000000000000100000
00000000000000000000000000000000011111111111111111111110000000000000000000000000000000011111111111111111111000000001110000000000000000000000000000000000000000000000000000000000000110000000000000110000
00000000000000000000000000000000011111111111111111111110000000000000000000000000000000011111111111111111111000000011000000000000000000000000000000000000000000000000000000000000001100000000000000010000
00000000000000000000000000000000011111111111111111111110000000000000000000000000000000011111111111111111111000000000000000000000000000000000000000000000000000000000000000000000011000000000000000011000
00000000000000000000000000000000011111111111111111111110000000000000000000000000000000011111111111111111111000000000000000000000000000000000000000000000000000000000000000000000110000000000001111100000
00000000000000000000000000000000011111111111111111111110000000000000000000000000000000011111111111111111111000000000000000000000000000000000000000000000000000000000000000000001100000000111110000000000
00000000000000000000000000000000011111111111111111111110000000000000000000000000000000011111111111111111111000000000000000000000000000000000000000000000000000000000000000000011000011111000000000000000
00000000000000000000000000000000000000000000000000000000000000000000000000000000000000000000000000000000000000000000000000000000000000000000000000000000000000000000000000000111111100000000000000000000
00000000000000000000000000000000000000000000000000000000000000000000000000000000000000000000000000000000000000000000000000000000000000000000000000000000000000000000000000001110000000000000000000000000
00000000000000000000000000000000000000000000000000000000000000000000000000000000000000000000000000000000000000000000000000000000000000000000000000000000000000000000000000000000000000000000000000000000
00000000000000000000000000000000000000000000000000000000000000000000000000000000000000000000000000000000000000000000000000000000000000000000000000000000000000000000000000000000000000000000000000000000
00000000000000000000000000000000000000000000000000000000000000000000000000000000000000000000000000000000000000000000000000000000000000000000000000000000000000000000000000000000000000000000000000000000
00000000000000000000000000000000000000000000000000000000000000000000000000000000000000000000000000000000000000000000000000000000000000000000000000000000000000000000000000000000000000000000000000000000
00000000000000000000000000000000000000000000000000000000000000000000000000000000000000000000000000000000000000000000000000000000000000000000000000000000000000000000000000000000000000000000000000000000
00000000000000000000000000000000000000000000000000000000000000000000000000000000000000000000000000000000000000000000000000000000000000000000000000000000000000000000000000000000000000000000000000000000
