Александр
+795065342345
Иркутск, Ленина, 16
Василий
+795061322345
Иркутск, Лермонтова, 13
Алексей
+795011142345
Иркутск, Седова, 11
Пётр
+795065342225
Иркутск, Ленина, 10
Василий
88005553535
Москва
Джэк
Нью-Йорк
797080980890
Майкл
Вашингтон
87685746789
Мирослав
Санкт-Петербург
4567890
Антонио
Рим
76545678987654